This experiment measures the tilt of the ThorLabs XYZ translation stage along the z-axis over a range of 25 mm
Camera shutter speed (ms): 9
Tracking fraction: 0.9
Calibration factor: 0.22193485237391664
Zero x position (px): 848.54
Zero y position (px): 540.77
Maximum working distance (mm): 93.24
Peak x position (px), Peak y position (px), Maximum pixel value
[[977.0400713917427, 609.2472228921804, 163], [977.0290171403719, 609.2206341044354, 164], [977.0255928722659, 609.253101117871, 163], [977.0380154639175, 609.2421069587629, 165], [977.0442123924635, 609.2770420845277, 162], [977.0238952536824, 609.2540098199672, 165], [977.0163536671337, 609.1954044374518, 163], [977.0386784993135, 609.2269266008246, 164], [977.0631053465603, 609.2128024615874, 163], [977.0665908886273, 609.1963364066767, 164], [977.0728306468213, 609.2444169345359, 164], [977.0688459633482, 609.2096747564801, 165], [977.0874436271398, 609.1887830468949, 164], [977.0553039731121, 609.2143252955717, 162], [977.0560742651984, 609.1968800852696, 166], [977.0609539207761, 609.1995149555376, 165], [977.0410630062316, 609.2224415264387, 163]]
[[974.8441518415121, 609.6366752156708, 162], [974.8091433309901, 609.6390060965662, 162], [974.8229789919486, 609.638814506073, 163], [974.8193363510657, 609.5962556468336, 162], [974.836985280527, 609.6002716824165, 162], [974.8419068375065, 609.6060472090834, 162], [974.8457410350902, 609.5953238869889, 164], [974.8432159184623, 609.5730577953577, 163], [974.8484251968504, 609.6272965879265, 165], [974.846837944664, 609.58069828722, 165], [974.8515369522564, 609.6036625245258, 165], [974.8638873614819, 609.6120780118113, 163], [974.8558782612489, 609.6041129330721, 163], [974.9603935236302, 609.5913575950627, 164], [974.8581932464848, 609.6066228032306, 163], [974.8480591099869, 609.5954864097428, 166], [974.8534939354151, 609.5832076360433, 163]]
[[972.8105268772442, 610.2364877260032, 183], [972.816130065918, 610.2541109489158, 184], [972.7913799562273, 610.2372052544007, 184], [972.8382747456166, 610.2293538336113, 184], [972.8172254696378, 610.2271653613675, 184], [972.8135441438376, 610.2164642570727, 182], [972.828138782711, 610.2244927962364, 185], [972.8079507615206, 610.1876186266685, 183], [972.8299905485143, 610.1731731162655, 186], [972.8357280402903, 610.1821952303362, 185], [972.8207337548441, 610.1731080456806, 183], [972.8191591440881, 610.1883060878433, 182], [972.8409872849663, 610.1582647718774, 185], [972.8358275300044, 610.1859534745888, 185], [972.830827531485, 610.1835692649189, 186], [972.8192735359526, 610.1761304670126, 185], [972.8275462243118, 610.1798139001147, 183]]
[[970.8175090536923, 611.1176192725555, 165], [970.8170559014692, 611.1108749170269, 167], [970.8028081123244, 611.1173166926677, 165], [970.7832043484841, 611.1061748897639, 167], [970.8289535798584, 611.1140833988985, 165], [970.8136714304937, 611.0792086822429, 166], [970.8343304499615, 611.1055344533928, 166], [970.8476100331283, 611.0979649787033, 165], [970.8508400062805, 611.0711257654262, 165], [970.8413197172034, 611.0785545954438, 165], [970.8239823982399, 611.094452302373, 165], [970.8213329131873, 611.0647550023633, 165], [970.8223804366337, 611.0680146531149, 166], [970.8422962745024, 611.0859625770562, 167], [970.8552275906947, 611.0926644156361, 166], [970.8386051535257, 611.0837833667644, 165], [970.8510806120839, 611.0572645527686, 165]]
[[969.9193082716662, 612.8961839388431, 182], [969.9297958967146, 612.906943672365, 183], [969.9422376205478, 612.876247199806, 182], [969.9764650951386, 612.895253685718, 183], [969.9562811384212, 612.8929115796362, 182], [969.9597757458267, 612.8872644531871, 182], [969.9601896361112, 612.8620567996135, 182], [969.9532126259048, 612.8892647264832, 181], [969.9606361713662, 612.8703961555659, 182], [969.9508473262832, 612.8539461000166, 183], [969.9651262903924, 612.8711191339261, 182], [969.9479285355023, 612.8703568823447, 183], [969.942997254786, 612.8839226267608, 181], [969.9607873981395, 612.8551022245521, 182], [969.9415778640005, 612.8826345161277, 181], [969.9374876968952, 612.8549184628741, 182], [969.948461942321, 612.8763443714366, 182]]
[[968.9131823208461, 615.7507540581747, 186], [968.9518082005193, 615.7428215470419, 183], [968.9642670206397, 615.7310870062903, 183], [968.9485289726728, 615.7300852449563, 184], [968.9806269294086, 615.7142037749176, 183], [968.9537572460919, 615.720048972471, 184], [968.9337466626544, 615.6532605856355, 184], [968.9638737097754, 615.6771402550091, 185], [968.9440238524757, 615.6990048051821, 184], [968.9327001255984, 615.664739819019, 186], [968.9335568424261, 615.705120390125, 185], [968.9621478916491, 615.6909274815564, 183], [968.957664936592, 615.6915188304016, 183], [968.945762199728, 615.6630911013748, 185], [968.9416102332581, 615.6404815650865, 185], [968.9486967721994, 615.6782477757021, 184], [968.954087336274, 615.676811628302, 184]]
Repeat number: 1
[[977.4240454698403, 609.3829929923878, 162], [977.419775251194, 609.3382474415441, 164], [977.4326022926992, 609.3749918093267, 161], [977.4419659814369, 609.3507065766881, 164], [977.4720218222833, 609.3594292173826, 164], [977.4372276408511, 609.31493401205, 167], [977.4322222377339, 609.321686719032, 164], [977.4429508196721, 609.3160655737705, 165], [977.4341682723185, 609.315671162492, 165], [977.4613105037866, 609.3167599604873, 165], [977.4496314496314, 609.344307944308, 165], [977.4821267882123, 609.3204583159664, 163], [977.4709096123241, 609.3087364578436, 163], [977.434609087508, 609.3018359124784, 167], [977.4770375606521, 609.330740999828, 162], [977.472513038988, 609.3219022248599, 164], [977.4695519647805, 609.3541086805693, 161]]
[[975.1964223586182, 609.6672505102325, 164], [975.162494240516, 609.726155736446, 165], [975.196735640217, 609.6906724935003, 163], [975.2265734265734, 609.6685314685315, 165], [975.2003390352905, 609.6595777469564, 165], [975.2210574996146, 609.6468321257901, 165], [975.1928130366448, 609.6844152723563, 167], [975.1926181325034, 609.6584611671974, 164], [975.1852136024887, 609.6841376717363, 167], [975.1973704634823, 609.6970698015048, 167], [975.2022716664073, 609.6413567761008, 165], [975.1829834055505, 609.6854994352432, 166], [975.1859986694477, 609.6272042831532, 162], [975.2154275958404, 609.6285891665374, 165], [975.2063903042301, 609.6259062085148, 167], [975.2070234626591, 609.6456065020702, 165], [975.2152484591212, 609.6681025160934, 168]]
[[972.9839321109291, 610.3444415722246, 188], [973.008117110637, 610.2875583869701, 186], [973.029427982842, 610.2794557742717, 186], [973.0346989044639, 610.2668873128712, 188], [973.0506658946149, 610.3031268094962, 190], [973.0348596302139, 610.2740269426721, 189], [973.04265129683, 610.2841498559078, 190], [973.0548328989898, 610.256315733027, 187], [973.0544668587896, 610.2876080691643, 190], [973.0318766500936, 610.2634628277592, 188], [973.0241240666284, 610.2251579551981, 190], [973.0274566473988, 610.2043352601156, 190], [973.0118602866592, 610.2519456481081, 189], [973.0170938024977, 610.2588051592493, 188], [972.9990580035128, 610.2482977891738, 189], [973.0171052004337, 610.242879944114, 187], [973.0408936868512, 610.2423951354178, 189]]
[[970.9378388927075, 611.3170625998097, 169], [970.9722959537706, 611.2961139356483, 169], [970.9498519102846, 611.3271146477106, 171], [970.9934884722417, 611.3112847610162, 168], [970.9571980449437, 611.2948991751823, 168], [970.9847140397873, 611.3017840855878, 171], [970.9793443187248, 611.2967236389579, 171], [970.9999527255524, 611.2791179449637, 171], [970.9441864867865, 611.2706990031048, 169], [970.989247311828, 611.2964669738864, 170], [970.9653323771947, 611.3012609349645, 169], [970.9899700589002, 611.296519197273, 169], [970.9621971306474, 611.3030390291126, 172], [970.9845808377372, 611.2881359643528, 169], [970.9438167938931, 611.282748091603, 170], [970.9510948211456, 611.2847299194103, 169], [970.9556570463117, 611.2589926828142, 169]]
[[969.8874609479387, 612.9572838974577, 182], [969.9356738745055, 612.9175421298244, 181], [969.9192999469783, 612.9476011179017, 181], [969.9343138071771, 612.933212410054, 183], [969.9135813859747, 612.9746529901844, 182], [969.9214696382852, 612.9355332108058, 181], [969.9129861388099, 612.9662999074297, 183], [969.8987601279579, 612.9345874502764, 182], [969.8986542245616, 612.9301994051252, 182], [969.903361249657, 612.9648292453443, 181], [969.895852421056, 612.9517413109573, 183], [969.9175390683803, 612.9305231156011, 183], [969.9276258659239, 612.9358871831166, 183], [969.9172517084276, 612.9252691863217, 183], [969.9155884165126, 612.8900184842884, 180], [969.9193150888827, 612.9469353221892, 184], [969.9189861240927, 612.9255705951847, 182]]
[[969.0502971184648, 615.6910165690371, 183], [969.0057436831326, 615.6994724108887, 184], [969.0357851858718, 615.6863398941848, 184], [969.0558189325585, 615.7103532650252, 185], [969.0482139699244, 615.6765163785061, 184], [969.044243792325, 615.6719337848006, 185], [969.0232076276509, 615.6767798830521, 184], [969.0609737600486, 615.6884574548764, 185], [969.0729504238373, 615.6946505976043, 184], [969.0620323786995, 615.6325204516629, 186], [969.0951833917816, 615.6612848426212, 184], [969.0773735022314, 615.6384868568804, 183], [969.0519909842224, 615.6339594290007, 185], [969.0793483179967, 615.6409714889123, 185], [969.061730034948, 615.6467545225131, 183], [969.0629538987408, 615.6609947420784, 184], [969.0422291536541, 615.659446282369, 183]]
Repeat number: 2
[[977.5203478496111, 609.3748823579288, 163], [977.4894531704072, 609.3714085885167, 163], [977.5333963181406, 609.3695110649231, 161], [977.5502140270004, 609.3947974975305, 160], [977.5045811518324, 609.3962696335078, 160], [977.497475404754, 609.385704130465, 162], [977.5689571123605, 609.3776111952848, 163], [977.5029023997984, 609.3331393561638, 164], [977.5108608517438, 609.3309062270072, 162], [977.5596343886036, 609.3851042717439, 164], [977.5108401442719, 609.319404880541, 164], [977.4622187224965, 609.3314021694284, 164], [977.4886891993937, 609.3664021451249, 161], [977.4404198644727, 609.3727873208685, 164], [977.4029501697349, 609.3715940928057, 163], [977.46996322202, 609.3415393165366, 162], [977.4882286222928, 609.3225835878843, 162]]
[[975.2178623845862, 609.5974464593438, 167], [975.1882930769779, 609.5860580182311, 167], [975.2779297054656, 609.5557203122029, 168], [975.268752876208, 609.5712532597024, 165], [975.2651310954909, 609.5701530417413, 167], [975.2607481704954, 609.5716551921385, 167], [975.2697652872143, 609.5461704756023, 165], [975.2738855523797, 609.5443437867436, 164], [975.2634480702799, 609.5358673904637, 164], [975.2526067692384, 609.5466491386894, 163], [975.2479275406816, 609.5359226281854, 165], [975.2603162417173, 609.5628865706097, 168], [975.2600833982991, 609.562115783217, 168], [975.2628099440601, 609.567395923211, 167], [975.2523103451941, 609.5368813806438, 166], [975.2386551317994, 609.5328265021594, 167], [975.2165124559285, 609.5454637253931, 164]]
[[972.94376232408, 610.1340755686496, 187], [972.9403719745548, 610.1161341720066, 188], [972.9638590332767, 610.147635643831, 189], [972.9480477632279, 610.1646085026019, 187], [972.9577712973413, 610.1745116113431, 186], [972.9547563812777, 610.1388888232934, 188], [972.9834322458787, 610.1046606637676, 188], [972.9819686668637, 610.1545965119716, 190], [972.9631262049976, 610.1342663965495, 187], [972.9702777031569, 610.1322927306404, 189], [972.952452016698, 610.1822820065238, 187], [972.9528251635734, 610.1464671997886, 187], [972.9713051537161, 610.0848206812558, 188], [972.9988034699372, 610.0281184564762, 190], [972.9642011834319, 610.0834319526627, 190], [972.9661425329886, 610.1219691396956, 188], [972.9201343640651, 610.1534825996014, 187]]
[[970.8847854297551, 611.1210706543884, 168], [970.8769247382884, 611.112554700273, 167], [970.8922452610544, 611.1109914321719, 167], [970.899896739543, 611.1209598108492, 167], [970.9253623711975, 611.098855419679, 169], [970.9494027970957, 611.1538406836655, 168], [970.9104075672954, 611.096903559304, 169], [970.9241111766543, 611.0708406099326, 167], [970.9199229934167, 611.1063386741737, 168], [970.9229194009063, 611.0850679288034, 167], [970.9345288926748, 611.0740297242656, 167], [970.965268422553, 611.1429401966793, 168], [970.9590233116015, 611.124581931061, 168], [970.918263045958, 611.0749072289282, 167], [970.9180835919045, 611.0864878268762, 167], [970.9292920823783, 611.0668883002021, 167], [970.9340954977303, 611.0701889354599, 167]]
[[969.7541296432253, 612.7715181581812, 184], [969.7625085506548, 612.7855180239638, 183], [969.7907554200561, 612.7920062249245, 183], [969.7898192441556, 612.7919939415497, 183], [969.8006960598917, 612.7745746094545, 184], [969.788489573762, 612.7906716477851, 183], [969.7942048749705, 612.7623483972856, 183], [969.7678770995325, 612.7987731948455, 183], [969.76927412867, 612.7653557607402, 183], [969.7909426797636, 612.7748019571924, 184], [969.7189365586102, 612.7479219489728, 184], [969.7541824309399, 612.7502699947182, 183], [969.7663524110026, 612.742674273502, 183], [969.8023193244343, 612.7593319665317, 182], [969.7841011152425, 612.752406833158, 183], [969.7740350155286, 612.7571844935012, 182], [969.7788675460467, 612.718028644623, 183]]
[[968.9646250043163, 615.4432129756508, 181], [968.9779907740805, 615.4626911684763, 181], [968.9954458561302, 615.4682584938465, 182], [969.0254452005917, 615.4720173227363, 182], [969.0184951482686, 615.4452158828858, 181], [969.0022795883025, 615.4368218536523, 181], [969.0224859075477, 615.4857214109854, 182], [969.021718895439, 615.4359292584548, 180], [969.0110871573761, 615.4342469972282, 180], [969.0097744534552, 615.4509988323057, 182], [969.0180428999952, 615.4372504493583, 182], [969.0174821937045, 615.4199318434489, 181], [969.0187675206103, 615.4214886059336, 181], [969.0300217528174, 615.436279830128, 181], [969.0085907479612, 615.4138349293735, 184], [969.057613113334, 615.4333547514034, 181], [969.0217552123482, 615.4372037820067, 182]]
