Camera shutter speed: 104
Tracking fraction: nan
Peak x position (px), Peak y position (px)
[[849.556882142248, 540.7074307806015], [849.5533348304514, 540.6743206826858], [849.5584113475177, 540.687829787234], [849.5483852626791, 540.7174778257903], [849.5369505807333, 540.6726258255522], [849.5598933968416, 540.700036857475], [849.5593652592803, 540.6893170869935], [849.5465492757739, 540.7129224652087], [849.56309139328, 540.6899541050484], [849.5442334939077, 540.714026636441], [849.5522941008834, 540.7097748646338], [849.5456241519674, 540.681592039801], [849.5298889837745, 540.7099914602903], [849.5618099032441, 540.7047239612976], [849.5517182618574, 540.6798068730475], [849.5628263337117, 540.7040862656073], [849.5609271146964, 540.7123217633358], [849.5623480178702, 540.7033308827688]]
[[847.2990640020238, 539.5971161143435], [847.2854611724208, 539.5388275792245], [847.2867000613371, 539.5601615211613], [847.2954025908052, 539.5654559309119], [847.2976178356918, 539.5834266517357], [847.2851102847537, 539.5426621160409], [847.2775020259319, 539.5704517828201], [847.2846279473308, 539.561957742166], [847.2813152135186, 539.5651753448363], [847.2961554067763, 539.5594948265368], [847.2801335897176, 539.5567250278311], [847.2810973127035, 539.5435667752442], [847.2884469024303, 539.5853163529353], [847.2846517237913, 539.580862398231], [847.2810550342379, 539.5619579000761], [847.2860854944719, 539.5939776838029], [847.2829159935379, 539.5542205169628], [847.2722777273186, 539.5741245332526]]
[[849.6942139429862, 540.6400790290714], [849.6711691514404, 540.6223517542876], [849.685504587156, 540.6490049400142], [849.6968088110704, 540.6291443095171], [849.677136102668, 540.6281098727907], [849.6913879645818, 540.6326208335684], [849.7055325896143, 540.6265360439436], [849.7130439722758, 540.647369617089], [849.6858205987616, 540.643413054593], [849.6856138958941, 540.638434728401], [849.7037947193965, 540.647674019888], [849.6879316200611, 540.6497226310427], [849.6945452483557, 540.6544567929236], [849.6867476656541, 540.6526043424457], [849.6771315640881, 540.6321852060983], [849.6733352065187, 540.6252318066872], [849.6663465883416, 540.6343199277], [849.6764131465878, 540.6099548016293]]
[[847.4141270079567, 539.5378821998698], [847.4128412537917, 539.5283619817998], [847.402089686547, 539.5453931910214], [847.4114883941734, 539.5316443045249], [847.4154672613014, 539.5128978309345], [847.3979354645205, 539.5006623509711], [847.4137449155292, 539.5511441619045], [847.4015343981889, 539.4902024902528], [847.4133220322082, 539.5075036146981], [847.3996038809637, 539.5067565873593], [847.4005020080322, 539.5007279116465], [847.3977568596034, 539.5064340076107], [847.4111139049535, 539.5305255217501], [847.4169808475343, 539.5449907002463], [847.3966432865732, 539.4869739478958], [847.4382175914218, 539.5173233523848], [847.3978196184332, 539.4966119070838], [847.4215, 539.531225]]
[[849.7679188374007, 540.5400603235536], [849.7702440914375, 540.5621851995351], [849.7673308541932, 540.5614142199034], [849.7659245345561, 540.5471520910447], [849.7653095370887, 540.5702732849973], [849.7603038087792, 540.5633307271306], [849.7670577767892, 540.550770171829], [849.7477577233972, 540.5469493965231], [849.7474243934862, 540.5515675196632], [849.757726406496, 540.548043196067], [849.7589877207084, 540.5772098566954], [849.7691773014152, 540.5650457363695], [849.7652818498644, 540.554184875809], [849.7662110351725, 540.5505362004778], [849.7658913007273, 540.5653416976628], [849.7773211905819, 540.5505886272767], [849.788236598481, 540.5485337324685], [849.772340070152, 540.5683146818105]]
[[847.5253463122426, 539.4606764008486], [847.5309554013382, 539.5100116906699], [847.5271310107827, 539.4959782852304], [847.5200634889143, 539.4979415703586], [847.5355967956606, 539.4688229828482], [847.5262059714839, 539.4751850563863], [847.5159906201667, 539.4745796537444], [847.5115099686769, 539.4801372246806], [847.527331670823, 539.4979551122194], [847.5234306805995, 539.5053994064394], [847.5164769322948, 539.4885160774916], [847.5124520595707, 539.4647108631767], [847.526568959038, 539.4726042841037], [847.5259209243004, 539.47195338485], [847.525158097333, 539.4923138450771], [847.5270837497502, 539.4973016190286], [847.5279048261729, 539.4610732048686], [847.5153438363324, 539.4610368600513]]
[[849.8235725414719, 542.4006965447713], [849.7747764794929, 542.3720138133308], [849.7760750660128, 542.3724537910223], [849.7547222873213, 542.3610967893134], [849.7870838009727, 542.3602225963338], [849.7958789136175, 542.3464258770275], [849.7714842821134, 542.3568744946973], [849.7833945213216, 542.3467946907654], [849.7746040723982, 542.3581259426848], [849.8217853689978, 542.4057824225404], [849.7876250290765, 542.3569202140033], [849.8202002410309, 542.3899601372021], [849.7716527987897, 542.3491868381241], [849.7885620915033, 542.3648459383753], [849.7758685446009, 542.3728638497653], [849.7799429879901, 542.368989205103], [849.776698117636, 542.3599493029151], [849.7749058380414, 542.3741525423728]]
[[851.3178579063635, 539.1732701489346], [851.2667695761999, 539.1303676676957], [851.2860621687437, 539.1547056295659], [851.257846434076, 539.1463500070057], [851.27822410148, 539.123467230444], [851.2597946783993, 539.1511977093372], [851.2634257634257, 539.1230958230958], [851.2682824905976, 539.1367878534614], [851.2917447053738, 539.1913268981415], [851.3192488262911, 539.1337316830275], [851.2811124801972, 539.1007921140645], [851.2541370744848, 539.1190567820033], [851.2666666666667, 539.1213998250219], [851.2651653764955, 539.123011963406], [851.3000918468277, 539.0941076727427], [851.284247538678, 539.1279887482419], [851.297770923875, 539.1418757885882], [851.2628627505958, 539.1420159820552]]
[[849.8863371143163, 542.3699761938104], [849.8814273152219, 542.3742305734253], [849.8624906646751, 542.3645444361464], [849.8853202517586, 542.3851351351351], [849.8858407079646, 542.3983698183512], [849.8968224644375, 542.3828745612415], [849.8851755041076, 542.372292755788], [849.8797702852909, 542.3772693590219], [849.8930713165421, 542.381585017068], [849.8659267171319, 542.3940927878141], [849.877137048332, 542.3908603641069], [849.8874988416272, 542.3876378463534], [849.8888369046505, 542.3642743520164], [849.8600695423362, 542.3713936660089], [849.8666103445039, 542.3848681122688], [849.8606886255482, 542.3752915927965], [849.884805521873, 542.3895159033672], [849.8967705805488, 542.3727832742206]]
[[850.8048857503732, 539.2663336778046], [850.8203396707628, 539.2808949686993], [850.822837589142, 539.2781803542673], [850.8092930113768, 539.2706059902484], [850.8151061030716, 539.2647428930961], [850.8071989004067, 539.2562568008705], [850.81479566928, 539.2710720542201], [850.8274350321594, 539.2678607481757], [850.8106623493018, 539.2527971320362], [850.7977076036933, 539.2663752930621], [850.8012065581341, 539.2674056113613], [850.8175243473751, 539.2813634530053], [850.8262185455279, 539.2518951949961], [850.8063452940502, 539.2598303336008], [850.8139461172742, 539.2775104451808], [850.7813550481048, 539.2765735481628], [850.809423691714, 539.2612539961407], [850.8094678288794, 539.2719922009405]]
[[850.0265236305275, 542.0757697343413], [850.0429297205758, 542.0725232853514], [850.0217539089055, 542.0953857919783], [850.017841971113, 542.0867034834324], [850.0439336754166, 542.0743819176456], [850.0350980805737, 542.1033537228433], [850.0354102249142, 542.1064848151129], [850.0250372578241, 542.0917181179476], [850.0242126650863, 542.0994327802235], [850.025016903313, 542.0661342123057], [850.0547532337059, 542.0943530495207], [850.0059574468086, 542.1048936170213], [850.026577510686, 542.08201785941], [850.0263549415515, 542.0893517534538], [850.0277730736664, 542.0882726502964], [850.018404123887, 542.0922762322668], [850.0357991177468, 542.062648456057], [850.0158919517703, 542.0461846534021]]
[[850.848869733988, 539.3493549491951], [850.875060135269, 539.367773155616], [850.8560201997276, 539.3376078075352], [850.8681737363474, 539.3509722575001], [850.8533344713782, 539.3324228974622], [850.8638195232691, 539.3482406356413], [850.8782080529257, 539.3421923120794], [850.8585664786232, 539.3626471177802], [850.859832695307, 539.3524174110307], [850.8712941847207, 539.378905359179], [850.8500171115675, 539.351357517682], [850.8509425816665, 539.3659807166499], [850.8648870986043, 539.3626460910019], [850.8403483723587, 539.354768703598], [850.8479956724747, 539.3540599020613], [850.8548652949869, 539.3621689212231], [850.8597037968893, 539.3520128087831], [850.8550612618802, 539.350967594183], [850.8693790149892, 539.3430692362598]]
