Camera shutter speed: 85
Tracking fraction: 0.76
Peak x position (px), Peak y position (px), Maximum pixel value
[[856.9881791370266, 542.6486982062364, 224], [856.9523856514993, 542.5028696720864, 222], [856.9688897452464, 542.5762976822124, 224], [856.9756249453277, 542.5706497315206, 224], [857.0061209742341, 542.5484966996486, 223], [856.9907430433556, 542.5940704827136, 223], [856.9938576459755, 542.5272076601752, 222], [856.9687951004404, 542.600019106108, 223], [857.0332322748043, 542.5413227918489, 223], [856.9830572896666, 542.5876483291125, 223], [856.9742425778181, 542.5367765039128, 222], [856.9835037386304, 542.5749273565552, 223], [856.9778067523199, 542.5356191858211, 223], [856.976445478592, 542.571522271203, 223], [856.9771179818804, 542.5656508531586, 223], [856.9762598244429, 542.5632163412661, 223], [856.9834384479481, 542.5425529916939, 223]]
[[857.7395006364782, 542.2522707118502, 230], [857.6800142266497, 542.2089725287168, 229], [857.8074278227211, 542.2605639819825, 230], [857.6790048009088, 542.3007252312779, 229], [857.7057800126671, 542.3037041023553, 230], [857.6647146216559, 542.2543283451703, 230], [857.6922116489815, 542.2561443901765, 230], [857.6795279791872, 542.2647660622353, 230], [857.6737259711049, 542.2350268516944, 230], [857.7053899544547, 542.277100200552, 230], [857.6790430054943, 542.2791522468426, 230], [857.6602574677194, 542.2952432568921, 230], [857.6871220316633, 542.2813659972835, 230], [857.6645601318958, 542.2762269577768, 230], [857.7186967281741, 542.2462751339442, 230], [857.696242296623, 542.2990660270292, 230], [857.692129791701, 542.2682411674929, 230]]
[[856.9857647436584, 542.6349138392379, 225], [856.9805731458624, 542.6677041966299, 225], [856.9885671546106, 542.6372475691848, 225], [857.0096909658663, 542.6555400021535, 225], [856.9713460921629, 542.664171923447, 225], [856.9747534944198, 542.6371221150721, 225], [856.9897496763056, 542.6302330599914, 225], [856.9731725860759, 542.663734115347, 225], [856.9739537925021, 542.6379686137751, 225], [856.9869926355806, 542.6300729847097, 224], [856.9813708791751, 542.6446721007662, 224], [857.0067692979583, 542.6175346653565, 225], [857.0015626595788, 542.6068124892046, 224], [856.9773711293234, 542.6211245058581, 224], [856.9884918895222, 542.6241779921087, 225], [856.9686241645541, 542.639525357191, 224], [856.9838304381077, 542.6358570960341, 225]]
[[857.7285563820592, 542.2888370822131, 230], [857.7180251880353, 542.3075116607074, 230], [857.7076345443996, 542.3224726140703, 230], [857.708477143483, 542.3434923664242, 230], [857.7128921124329, 542.298357067881, 230], [857.678406523975, 542.3139923909183, 230], [857.6812982806218, 542.2884415146694, 230], [857.7005612155356, 542.3313885988505, 230], [857.6867406673806, 542.3337341768707, 230], [857.7044611519673, 542.3464530188627, 230], [857.7134979399425, 542.3301815525658, 230], [857.7002245886608, 542.3156322394326, 230], [857.6905108215391, 542.3462522968141, 230], [857.6938355230262, 542.3427057044319, 230], [857.668167799619, 542.3258320385056, 230], [857.6684955825617, 542.298492018749, 230], [857.6826459247288, 542.2855181233745, 230]]
[[857.0214284637276, 542.6529605840622, 223], [857.0489173419398, 542.6344081624352, 223], [857.0458684359126, 542.6399207645113, 223], [857.0685600237334, 542.6334614946863, 223], [857.0585851829853, 542.5587574805646, 222], [857.0500299827102, 542.6085548010802, 222], [857.0697592317559, 542.5683501933294, 222], [857.0258302260705, 542.6013597913831, 222], [857.0439142800388, 542.5851952805698, 222], [857.0409938581676, 542.5813575507987, 222], [857.0090616521422, 542.6411967221393, 224], [856.9983496832857, 542.6462507413634, 224], [857.0230409738072, 542.6655798282795, 225], [856.9993643394428, 542.6739061341244, 225], [857.0132071524164, 542.7040015203928, 226], [857.0256826361785, 542.7220627266216, 226], [857.0242030768767, 542.6875308714249, 226]]
[[857.6142390270477, 542.4350285811543, 230], [857.6089225313669, 542.2996403144651, 230], [857.5750181766788, 542.3188729254275, 230], [857.5819770897575, 542.3091662277841, 230], [857.5716922095216, 542.3130389200455, 230], [857.5897163506551, 542.3122846683452, 230], [857.5760455201915, 542.3288145964568, 229], [857.5828012093817, 542.3159098740058, 230], [857.5933146806954, 542.3500691120528, 230], [857.59831045413, 542.3071731518077, 230], [857.6077672254119, 542.3278570203125, 230], [857.6201756389779, 542.3286694657158, 230], [857.6265072994344, 542.3325758639163, 230], [857.6669928268392, 542.345298076217, 230], [857.6254484834137, 542.3464979897391, 230], [857.644258479395, 542.3569593483303, 230], [857.6701139670993, 542.3559507673111, 230]]
[[857.8855279325513, 543.5897908478055, 227], [857.8431602146723, 543.6089443570136, 228], [857.8546130734287, 543.5617977599869, 228], [857.8725389258301, 543.5675624315787, 228], [857.849404565189, 543.6081386893845, 229], [857.8557462601844, 543.564352809284, 228], [857.8594139976102, 543.5929488157831, 228], [857.8672838996827, 543.5622559934264, 228], [857.8536411240751, 543.5586433492425, 228], [857.8659327770572, 543.5624144134375, 228], [857.847573160851, 543.5599836422293, 228], [857.8471571982078, 543.5540974104109, 228], [857.8520570971596, 543.5277795316545, 229], [857.8758442401471, 543.5258218607075, 229], [857.8683214625607, 543.5219199089746, 228], [857.8699342428906, 543.5131924672025, 228], [857.8581552804075, 543.5240345837616, 228]]
[[857.8799460431654, 540.7444919064748, 225], [857.8895616100459, 540.7891019172553, 225], [857.8762452865885, 540.7300128496412, 226], [857.909859430497, 540.7612624273012, 227], [857.9033739089, 540.7825527532874, 227], [857.8678776112898, 540.7688755979458, 227], [857.9003413342997, 540.7690061648437, 226], [857.8791520671259, 540.767189725408, 227], [857.8675338372354, 540.7714388124336, 227], [857.8690180868256, 540.7866059791726, 227], [857.8804460108935, 540.7615298293874, 228], [857.8800315518565, 540.7817318074179, 227], [857.8675707668966, 540.8054104732347, 228], [857.8835641649802, 540.8044593522366, 227], [857.8627518108132, 540.77339547525, 228], [857.8737985350359, 540.8023621387567, 229], [857.8490039881909, 540.7794813211191, 229]]
[[857.8686284600892, 543.5010190300479, 230], [857.7275904013599, 543.5973099680425, 228], [857.8306546621807, 543.5627295233077, 228], [857.8331281416033, 543.5542617496415, 228], [857.8170051205016, 543.5698861530364, 229], [857.7710121535639, 543.5762329603396, 229], [857.7513953771789, 543.5989241860301, 228], [857.8229070624103, 543.577886797252, 228], [857.7633685823597, 543.6074218656435, 229], [857.865819072581, 543.5529034607439, 230], [857.7715288134236, 543.5903375879677, 230], [857.7480498136832, 543.6202816637528, 229], [857.8525539841002, 543.5640156953177, 228], [857.7701164314078, 543.6149252975187, 229], [857.749583495775, 543.6087110132286, 228], [857.7978952010056, 543.6194418717, 229], [857.8141392145393, 543.5879958739827, 229]]
[[857.7624235398383, 540.797716226638, 223], [857.7468696406548, 540.8145679075409, 224], [857.7409392589295, 540.7837792787426, 224], [857.7551435128605, 540.7912595621187, 224], [857.7634351298309, 540.8029714884705, 224], [857.7535131459656, 540.7614460562104, 225], [857.7669231227277, 540.7899492461662, 224], [857.7753582308474, 540.7938621234345, 225], [857.7537845196101, 540.7917982364715, 224], [857.7649102626065, 540.7862897789283, 222], [857.7349381875259, 540.8011509704929, 222], [857.7521597954304, 540.78890983132, 224], [857.7387659271061, 540.7922574722857, 223], [857.7622308117062, 540.7937051352844, 225], [857.8065161954546, 540.771517161094, 223], [857.7954672323323, 540.774478061851, 225], [857.80871886121, 540.7935943060498, 225]]
[[857.7341175266105, 543.6134566429838, 228], [857.7151199090199, 543.6084777321303, 228], [857.7331379237605, 543.5867928246455, 228], [857.7498169363653, 543.5915295305338, 229], [857.760813755948, 543.5865562774192, 228], [857.7337792843308, 543.6018577826288, 228], [857.6825246856208, 543.6531778684504, 228], [857.7689957496256, 543.6106037532705, 228], [857.6802438622624, 543.6425881102656, 228], [857.728787687251, 543.5847182608553, 228], [857.6863088130722, 543.6510432548757, 228], [857.6813543025793, 543.6086878612057, 228], [857.6789777239331, 543.6309073220485, 228], [857.7592907129367, 543.6026493440445, 229], [857.7233905402733, 543.614868328965, 229], [857.6348060156878, 543.6686901076336, 228], [857.6235983571241, 543.6414933943895, 228]]
[[857.6426803058595, 540.8013097475016, 228], [857.6392926872359, 540.8040079925939, 228], [857.6205777699674, 540.8034285120997, 226], [857.614405462709, 540.804636951068, 226], [857.6254281938966, 540.8061083314832, 226], [857.6204958448159, 540.8273987636377, 226], [857.6319851118022, 540.79930403724, 227], [857.6184552770725, 540.8066631569807, 226], [857.6416323306692, 540.7873901907589, 227], [857.6155643088317, 540.806838049803, 227], [857.6454630686856, 540.7881620875746, 226], [857.6271516965099, 540.7718510805262, 227], [857.6381907229242, 540.7889915454721, 226], [857.6343053173242, 540.7897084048027, 225], [857.6216680518164, 540.788501317863, 227], [857.6354881151649, 540.8118627652725, 227], [857.6138826826359, 540.798022235719, 226]]
